<?xml version="1.0" encoding="iso-8859-1"?>
<!-- Generator: Adobe Illustrator 19.0.0, SVG Export Plug-In . SVG Version: 6.00 Build 0)  -->
<svg fill="#F33D41" version="1.1" id="Capa_1" xmlns="http://www.w3.org/2000/svg" xmlns:xlink="http://www.w3.org/1999/xlink" x="0px" y="0px"
	 viewBox="0 0 512.001 512.001" style="enable-background:new 0 0 512.001 512.001;" xml:space="preserve">
<g>
	<g>
		<rect x="303.18" y="278.301" width="151.15" height="233.7"/>
	</g>
</g>
<g>
	<g>
		<path d="M388.441,116.954L388.441,116.954c7.384-10.059,12.299-22.101,13.776-35.307c4.503-40.262-24.587-76.681-64.849-81.185
			c-37.231-4.164-71.546,20.248-79.823,56.784L256,64.066l-1.545-6.819c-8.276-36.537-42.599-60.944-79.823-56.784
			c-40.262,4.504-69.352,40.923-64.849,81.185c1.477,13.205,6.392,25.248,13.776,35.306H35.533v131.35h173.291v-101.35h94.352
			v101.35h173.291v-131.35H388.441z M182.799,116.952v0.001c-22.166,0-40.739-16.612-43.202-38.641
			c-2.665-23.823,14.548-45.371,38.369-48.036c22.035-2.468,42.333,11.98,47.231,33.598l12.024,53.078H182.799z M372.403,78.313
			c-2.463,22.028-21.037,38.64-43.202,38.64h-54.423l12.024-53.078c4.897-21.619,25.189-36.068,47.231-33.598
			C357.855,32.942,375.068,54.49,372.403,78.313z"/>
	</g>
</g>
<g>
	<g>
		<rect x="57.671" y="278.301" width="151.15" height="233.7"/>
	</g>
</g>
<g>
</g>
<g>
</g>
<g>
</g>
<g>
</g>
<g>
</g>
<g>
</g>
<g>
</g>
<g>
</g>
<g>
</g>
<g>
</g>
<g>
</g>
<g>
</g>
<g>
</g>
<g>
</g>
<g>
</g>
</svg>
