<svg width="22" height="18" viewBox="0 0 22 18" version="1.1" xmlns="http://www.w3.org/2000/svg" xmlns:xlink="http://www.w3.org/1999/xlink">
<title>valentines-heart</title>
<desc>Created using Figma</desc>
<g id="Canvas" transform="translate(1256 1724)">
<g id="valentines-heart">
<g id="Group">
<g id="Icons 18">
<g id="Vector">
<use xlink:href="#path0_fill" transform="translate(-1256 -1724)" fill="#DBDBDB"/>
</g>
</g>
</g>
</g>
</g>
<defs>
<path id="path0_fill" d="M 22 5.61134C 22 2.51223 19.3401 -1.41571e-08 16.0589 -1.41571e-08C 13.9164 -1.41571e-08 12.0452 1.07473 10.9999 2.68088C 9.95476 1.07473 8.08285 -1.41571e-08 5.94035 -1.41571e-08C 2.65919 -1.41571e-08 0 2.51223 0 5.61134C 0 7.29862 0.791603 8.80816 2.03922 9.83612L 10.4578 17.7879C 10.6016 17.9237 10.7966 18 10.9999 18C 11.2033 18 11.3983 17.9237 11.5421 17.7879L 19.9606 9.83612C 21.2083 8.80816 22 7.29862 22 5.61134Z"/>
</defs>
</svg>
