<svg width="16" height="16" viewBox="0 0 16 16" version="1.1" xmlns="http://www.w3.org/2000/svg" xmlns:xlink="http://www.w3.org/1999/xlink">
<title>ic_star_border</title>
<desc>Created using Figma</desc>
<g id="Canvas" transform="translate(1243 1643)">
<g id="ic_star_border">
<g id="ic_star_border_black_24px">
<g id="Shape">
<use xlink:href="#path0_fill" transform="translate(-1242.78 -1641.98)" fill="#F33D41"/>
</g>
</g>
</g>
</g>
<defs>
<path id="path0_fill" fill-rule="evenodd" d="M 9.96338 5.10413L 15.5555 5.58215L 11.3167 9.229L 12.5845 14.6493L 7.77783 11.7734L 2.97107 14.6493L 4.2467 9.229L 0 5.58215L 5.59216 5.11182L 7.77783 0L 9.96338 5.10413ZM 4.85339 12.0818L 7.77783 10.3315L 10.7101 12.0895L 9.93225 8.78955L 12.5145 6.56897L 9.10779 6.276L 7.77783 3.16113L 6.45557 6.26831L 3.04895 6.56128L 5.63123 8.78186L 4.85339 12.0818Z"/>
</defs>
</svg>
